﻿Log file open, 04/26/18 17:38:19
LogWindows: LoadLibraryWithSearchPaths failed for file aqProf.dll. GetLastError=0
LogWindows: LoadLibraryWithSearchPaths failed for file VSPerf140.dll. GetLastError=0
LogWindows: LoadLibraryWithSearchPaths failed for file VtuneApi.dll. GetLastError=0
LogWindows: LoadLibraryWithSearchPaths failed for file VtuneApi32e.dll. GetLastError=0
LogInit: Display: Running engine for game: GravFind
LogPlatformFile: Not using cached read wrapper
LogInit: Display: RandInit(2078811341) SRandInit(2078811341).
LogTaskGraph: Started task graph with 5 named threads and 14 total threads with 3 sets of task threads.
LogStats: Stats thread started at 0.165672
LogD3D11RHI: Aftermath initialized
LogPluginManager: Mounting plugin Paper2D
LogPluginManager: Mounting plugin LightPropagationVolume
LogPluginManager: Mounting plugin CodeLiteSourceCodeAccess
LogPluginManager: Mounting plugin GitSourceControl
LogPluginManager: Mounting plugin KDevelopSourceCodeAccess
LogPluginManager: Mounting plugin NullSourceCodeAccess
LogPluginManager: Mounting plugin PerforceSourceControl
LogPluginManager: Mounting plugin SubversionSourceControl
LogPluginManager: Mounting plugin UObjectPlugin
LogPluginManager: Mounting plugin VisualStudioSourceCodeAccess
LogPluginManager: Mounting plugin XCodeSourceCodeAccess
LogPluginManager: Mounting plugin AssetManagerEditor
LogPluginManager: Mounting plugin AudioCapture
LogPluginManager: Mounting plugin FacialAnimation
LogPluginManager: Mounting plugin GameplayTagsEditor
LogPluginManager: Mounting plugin MobileLauncherProfileWizard
LogPluginManager: Mounting plugin PluginBrowser
LogPluginManager: Mounting plugin SpeedTreeImporter
LogPluginManager: Mounting plugin AlembicImporter
LogPluginManager: Mounting plugin CharacterAI
LogPluginManager: Mounting plugin HTML5Networking
LogPluginManager: Mounting plugin AndroidMedia
LogPluginManager: Mounting plugin AvfMedia
LogPluginManager: Mounting plugin MediaPlayerEditor
LogPluginManager: Mounting plugin WmfMedia
LogPluginManager: Mounting plugin TcpMessaging
LogPluginManager: Mounting plugin UdpMessaging
LogPluginManager: Mounting plugin LevelSequenceEditor
LogPluginManager: Mounting plugin MatineeToLevelSequence
LogPluginManager: Mounting plugin OnlineSubsystemGooglePlay
LogPluginManager: Mounting plugin OnlineSubsystemIOS
LogPluginManager: Mounting plugin OnlineSubsystem
LogPluginManager: Mounting plugin OnlineSubsystemNull
LogPluginManager: Mounting plugin OnlineSubsystemUtils
LogPluginManager: Mounting plugin AndroidDeviceProfileSelector
LogPluginManager: Mounting plugin AndroidMoviePlayer
LogPluginManager: Mounting plugin AndroidPermission
LogPluginManager: Mounting plugin AppleMoviePlayer
LogPluginManager: Mounting plugin ArchVisCharacter
LogPluginManager: Mounting plugin CableComponent
LogPluginManager: Mounting plugin CustomMeshComponent
LogPluginManager: Mounting plugin ExampleDeviceProfileSelector
LogPluginManager: Mounting plugin GoogleCloudMessaging
LogPluginManager: Mounting plugin ImmediatePhysics
LogPluginManager: Mounting plugin IOSDeviceProfileSelector
LogPluginManager: Mounting plugin LinuxDeviceProfileSelector
LogPluginManager: Mounting plugin LocationServicesBPLibrary
LogPluginManager: Mounting plugin MobilePatchingUtils
LogPluginManager: Mounting plugin OculusVR
LogPluginManager: Mounting plugin PhysXVehicles
LogPluginManager: Mounting plugin ProceduralMeshComponent
LogPluginManager: Mounting plugin RuntimePhysXCooking
LogPluginManager: Mounting plugin SteamVR
LogPluginManager: Mounting plugin WindowsMoviePlayer
LogInit: Using libcurl 7.47.1
LogInit:  - built for x86_64-pc-win32
LogInit:  - supports SSL with OpenSSL/1.0.2g
LogInit:  - supports HTTP deflate (compression) using libz 1.2.8
LogInit:  - other features:
LogInit:      CURL_VERSION_SSL
LogInit:      CURL_VERSION_LIBZ
LogInit:      CURL_VERSION_IPV6
LogInit:      CURL_VERSION_ASYNCHDNS
LogInit:      CURL_VERSION_LARGEFILE
LogInit:      CURL_VERSION_IDN
LogInit:  CurlRequestOptions (configurable via config and command line):
LogInit:  - bVerifyPeer = false  - Libcurl will NOT verify peer certificate
LogInit:  - bUseHttpProxy = false  - Libcurl will NOT use HTTP proxy
LogInit:  - bDontReuseConnections = false  - Libcurl will reuse connections
LogInit:  - CertBundlePath = nullptr  - Libcurl will use whatever was configured at build time.
LogInit: Build: ++UE4+Release-4.17-CL-3573198
LogInit: Engine Version: 4.17.0-3573198+++UE4+Release-4.17
LogInit: Compatible Engine Version: 4.17.0-3573198+++UE4+Release-4.17
LogInit: Net CL: 3573198
LogDevObjectVersion: Number of dev versions registered: 16
LogDevObjectVersion:   Dev-Blueprints (B0D832E4-1F89-4F0D-ACCF-7EB736FD4AA2): 10
LogDevObjectVersion:   Dev-Build (E1C64328-A22C-4D53-A36C-8E866417BD8C): 0
LogDevObjectVersion:   Dev-Core (375EC13C-06E4-48FB-B500-84F0262A717E): 2
LogDevObjectVersion:   Dev-Editor (E4B068ED-F494-42E9-A231-DA0B2E46BB41): 20
LogDevObjectVersion:   Dev-Framework (CFFC743F-43B0-4480-9391-14DF171D2073): 28
LogDevObjectVersion:   Dev-Mobile (B02B49B5-BB20-44E9-A304-32B752E40360): 0
LogDevObjectVersion:   Dev-Networking (A4E4105C-59A1-49B5-A7C5-40C4547EDFEE): 0
LogDevObjectVersion:   Dev-Online (39C831C9-5AE6-47DC-9A44-9C173E1C8E7C): 0
LogDevObjectVersion:   Dev-Physics (78F01B33-EBEA-4F98-B9B4-84EACCB95AA2): 0
LogDevObjectVersion:   Dev-Platform (6631380F-2D4D-43E0-8009-CF276956A95A): 0
LogDevObjectVersion:   Dev-Rendering (12F88B9F-8875-4AFC-A67C-D90C383ABD29): 19
LogDevObjectVersion:   Dev-Sequencer (7B5AE74C-D270-4C10-A958-57980B212A5A): 4
LogDevObjectVersion:   Dev-VR (D7296918-1DD6-4BDD-9DE2-64A83CC13884): 0
LogDevObjectVersion:   Dev-LoadTimes (C2A15278-BFE7-4AFE-6C17-90FF531DF755): 1
LogDevObjectVersion:   Private-Geometry (6EACA3D4-40EC-4CC1-B786-8BED09428FC5): 1
LogDevObjectVersion:   Dev-AnimPhys (29E575DD-E0A3-4627-9D10-D276232CDCEA): 7
LogInit: Compiled (64-bit): Aug  4 2017 16:30:33
LogInit: Compiled with Visual C++: 19.00.24215.01
LogInit: Build Configuration: Development
LogInit: Branch Name: ++UE4+Release-4.17
LogInit: Command line: 
LogInit: Base directory: C:/Program Files (x86)/Epic Games/UE_4.17/Engine/Binaries/Win64/
LogInit: Installed Engine Build: 1
LogInit: Presizing for max 8388607 objects, including 0 objects not considered by GC, pre-allocating 0 bytes for permanent pool.
LogInit: Object subsystem initialized
[2018.04.26-21.38.19:891][  0]LogInit: Selected Device Profile: [Windows]
[2018.04.26-21.38.19:891][  0]LogInit: Applying CVar settings loaded from the selected device profile: [Windows]
[2018.04.26-21.38.19:902][  0]LogInit: Computer: IULB-V-FF052-02
[2018.04.26-21.38.19:902][  0]LogInit: User: jodmeyer
[2018.04.26-21.38.19:902][  0]LogInit: CPU Page size=4096, Cores=4
[2018.04.26-21.38.19:902][  0]LogInit: High frequency timer resolution =3.328124 MHz
[2018.04.26-21.38.19:903][  0]LogMemory: Memory total: Physical=32.0GB (32GB approx)
[2018.04.26-21.38.19:903][  0]LogMemory: Platform Memory Stats for Windows
[2018.04.26-21.38.19:903][  0]LogMemory: Process Physical Memory: 278.45 MB used, 278.45 MB peak
[2018.04.26-21.38.19:903][  0]LogMemory: Process Virtual Memory: 282.59 MB used, 282.59 MB peak
[2018.04.26-21.38.19:903][  0]LogMemory: Physical Memory: 7593.64 MB used,  25125.36 MB free, 32719.00 MB total
[2018.04.26-21.38.19:903][  0]LogMemory: Virtual Memory: 676.45 MB used,  25125.36 MB free, 134217728.00 MB total
[2018.04.26-21.38.20:045][  0]LogInit: Using OS detected language (en-US).
[2018.04.26-21.38.20:045][  0]LogInit: Using OS detected locale (en-US).
[2018.04.26-21.38.20:048][  0]LogTextLocalizationManager: No specific localization for 'en-US' exists, so the 'en' localization will be used.
[2018.04.26-21.38.20:622][  0]LogD3D11RHI: D3D11 adapters:
[2018.04.26-21.38.20:659][  0]LogD3D11RHI:    0. 'NVIDIA GeForce GTX 1080' (Feature Level 11_0)
[2018.04.26-21.38.20:659][  0]LogD3D11RHI:       8144/0/16359 MB DedicatedVideo/DedicatedSystem/SharedSystem, Outputs:1, VendorId:0x10de
[2018.04.26-21.38.20:660][  0]LogD3D11RHI:    1. 'Microsoft Basic Render Driver' (Feature Level 11_0)
[2018.04.26-21.38.20:660][  0]LogD3D11RHI:       0/0/16359 MB DedicatedVideo/DedicatedSystem/SharedSystem, Outputs:0, VendorId:0x1414
[2018.04.26-21.38.20:660][  0]LogD3D11RHI: Chosen D3D11 Adapter: 0
[2018.04.26-21.38.20:663][  0]LogD3D11RHI: Creating new Direct3DDevice
[2018.04.26-21.38.20:663][  0]LogD3D11RHI:     GPU DeviceId: 0x1b80 (for the marketing name, search the web for "GPU Device Id")
[2018.04.26-21.38.20:663][  0]LogWindows: EnumDisplayDevices:
[2018.04.26-21.38.20:663][  0]LogWindows:    0. 'NVIDIA GeForce GTX 1080' (P:1 D:1)
[2018.04.26-21.38.20:663][  0]LogWindows:    1. 'NVIDIA GeForce GTX 1080' (P:0 D:0)
[2018.04.26-21.38.20:664][  0]LogWindows:    2. 'NVIDIA GeForce GTX 1080' (P:0 D:0)
[2018.04.26-21.38.20:664][  0]LogWindows:    3. 'NVIDIA GeForce GTX 1080' (P:0 D:0)
[2018.04.26-21.38.20:664][  0]LogWindows:    4. 'Freedom Scientific Accessibility Display Driver' (P:0 D:0)
[2018.04.26-21.38.20:664][  0]LogWindows: DebugString: GetVideoDriverDetailsInvalid PrimaryIsNotTheChoosenAdapter FoundDriverCount:4 
[2018.04.26-21.38.20:664][  0]LogD3D11RHI:     Adapter Name: NVIDIA GeForce GTX 1080
[2018.04.26-21.38.20:664][  0]LogD3D11RHI:   Driver Version: 369.26 (internal:21.21.13.6926, unified:369.26)
[2018.04.26-21.38.20:664][  0]LogD3D11RHI:      Driver Date: 8-30-2016
[2018.04.26-21.38.20:664][  0]LogRHI: Texture pool is 1361 MB (70% of 1945 MB)
[2018.04.26-21.38.20:680][  0]LogD3D11RHI: Async texture creation enabled
[2018.04.26-21.38.20:692][  0]LogD3D11RHI: GPU Timing Frequency: 1000.000000 (Debug: 2 1)
[2018.04.26-21.38.20:736][  0]LogShaderCompilers: Guid format shader working directory is -64 characters bigger than the processId version (../../../../../../Users/jodmeyer/Documents/unreal_production_project/GravFind 4.17 - 2 4.17 - 2 4.17 - 2 4.17 - 2/Intermediate/Shaders/WorkingDirectory/8860/).
[2018.04.26-21.38.20:736][  0]LogShaderCompilers: Cleaned the shader compiler working directory 'C:/Users/jodmeyer/AppData/Local/Temp/UnrealShaderWorkingDir/858E3AF24C632B45B57A82B000227171/'.
[2018.04.26-21.38.20:736][  0]LogShaderCompilers: Display: Using Local Shader Compiler.
[2018.04.26-21.38.21:652][  0]LogTemp: Display: Loaded TP AllDesktopTargetPlatform
[2018.04.26-21.38.21:701][  0]LogTemp: Display: Loaded TP MacClientTargetPlatform
[2018.04.26-21.38.21:746][  0]LogTemp: Display: Loaded TP MacNoEditorTargetPlatform
[2018.04.26-21.38.21:793][  0]LogTemp: Display: Loaded TP MacServerTargetPlatform
[2018.04.26-21.38.21:839][  0]LogTemp: Display: Loaded TP MacTargetPlatform
[2018.04.26-21.38.21:885][  0]LogTemp: Display: Loaded TP WindowsClientTargetPlatform
[2018.04.26-21.38.21:930][  0]LogTemp: Display: Loaded TP WindowsNoEditorTargetPlatform
[2018.04.26-21.38.21:977][  0]LogTemp: Display: Loaded TP WindowsServerTargetPlatform
[2018.04.26-21.38.22:019][  0]LogTemp: Display: Loaded TP WindowsTargetPlatform
[2018.04.26-21.38.22:069][  0]LogTemp: Display: Loaded TP AndroidTargetPlatform
[2018.04.26-21.38.22:115][  0]LogTemp: Display: Loaded TP Android_ASTCTargetPlatform
[2018.04.26-21.38.22:166][  0]LogTemp: Display: Loaded TP Android_ATCTargetPlatform
[2018.04.26-21.38.22:215][  0]LogTemp: Display: Loaded TP Android_DXTTargetPlatform
[2018.04.26-21.38.22:260][  0]LogTemp: Display: Loaded TP Android_ETC1TargetPlatform
[2018.04.26-21.38.22:306][  0]LogTemp: Display: Loaded TP Android_ETC2TargetPlatform
[2018.04.26-21.38.22:397][  0]LogTemp: Display: Loaded TP Android_MultiTargetPlatform
[2018.04.26-21.38.22:397][  0]LogTemp: Display: Loaded TP Android_PVRTCTargetPlatform
[2018.04.26-21.38.22:434][  0]LogTemp: Display: Loaded TP HTML5TargetPlatform
[2018.04.26-21.38.22:518][  0]LogTemp: Display: Loaded TP IOSTargetPlatform
[2018.04.26-21.38.22:544][  0]LogTemp: Display: Loaded TP TVOSTargetPlatform
[2018.04.26-21.38.22:589][  0]LogTemp: Display: Loaded TP LinuxClientTargetPlatform
[2018.04.26-21.38.22:634][  0]LogTemp: Display: Loaded TP LinuxNoEditorTargetPlatform
[2018.04.26-21.38.22:681][  0]LogTemp: Display: Loaded TP LinuxServerTargetPlatform
[2018.04.26-21.38.22:725][  0]LogTemp: Display: Loaded TP LinuxTargetPlatform
[2018.04.26-21.38.22:725][  0]LogTargetPlatformManager: Display: Building Assets For Windows
[2018.04.26-21.38.23:139][  0]LogDerivedDataCache: Display: Max Cache Size: 512 MB
[2018.04.26-21.38.23:207][  0]LogDerivedDataCache: Loaded boot cache 0.07s 93MB C:/Users/jodmeyer/AppData/Local/UnrealEngine/4.17/DerivedDataCache/Boot.ddc.
[2018.04.26-21.38.23:207][  0]LogDerivedDataCache: Display: Loaded Boot cache: C:/Users/jodmeyer/AppData/Local/UnrealEngine/4.17/DerivedDataCache/Boot.ddc
[2018.04.26-21.38.23:207][  0]LogDerivedDataCache: FDerivedDataBackendGraph:  Pak pak cache file ../../../../../../Users/jodmeyer/Documents/unreal_production_project/GravFind 4.17 - 2 4.17 - 2 4.17 - 2 4.17 - 2/DerivedDataCache/DDC.ddp not found, will not use a pak cache.
[2018.04.26-21.38.23:207][  0]LogDerivedDataCache: Unable to find inner node Pak for hierarchical cache Hierarchy.
[2018.04.26-21.38.23:207][  0]LogDerivedDataCache: FDerivedDataBackendGraph:  CompressedPak pak cache file ../../../../../../Users/jodmeyer/Documents/unreal_production_project/GravFind 4.17 - 2 4.17 - 2 4.17 - 2 4.17 - 2/DerivedDataCache/Compressed.ddp not found, will not use a pak cache.
[2018.04.26-21.38.23:207][  0]LogDerivedDataCache: Unable to find inner node CompressedPak for hierarchical cache Hierarchy.
[2018.04.26-21.38.23:223][  0]LogDerivedDataCache: Display: Pak cache opened for reading ../../../Engine/DerivedDataCache/Compressed.ddp.
[2018.04.26-21.38.23:234][  0]LogDerivedDataCache: Using Local data cache path C:/Users/jodmeyer/AppData/Local/UnrealEngine/Common/DerivedDataCache: Writable
[2018.04.26-21.38.23:243][  0]LogMaterial: Verifying Global Shaders for PCD3D_SM5
[2018.04.26-21.38.23:243][  0]LogSlate: Using Freetype 2.6.0
[2018.04.26-21.38.23:244][  0]LogSlate: SlateFontCache - WITH_FREETYPE: 1, WITH_HARFBUZZ: 1
[2018.04.26-21.38.23:244][  0]LogSlate: SlateFontCache - WITH_FREETYPE: 1, WITH_HARFBUZZ: 1
[2018.04.26-21.38.23:472][  0]LogAssetRegistry: FAssetRegistry took 0.0262 seconds to start up
[2018.04.26-21.38.23:572][  0]LogInit: Selected Device Profile: [Windows]
[2018.04.26-21.38.23:892][  0]LogSimplygon: Simplygon DLL not present - disabling.
[2018.04.26-21.38.23:929][  0]LogMeshReduction: Using SimplygonSwarm for distributed automatic mesh merging
[2018.04.26-21.38.23:929][  0]LogMeshReduction: Using QuadricMeshReduction for automatic static mesh reduction
[2018.04.26-21.38.23:929][  0]LogMeshReduction: No automatic skeletal mesh reduction module available
[2018.04.26-21.38.23:929][  0]LogMeshReduction: No automatic mesh merging module available
[2018.04.26-21.38.23:929][  0]LogMeshMerging: No automatic mesh merging module available
[2018.04.26-21.38.23:930][  0]LogContentStreaming: Texture pool size is 0.00 MB
[2018.04.26-21.38.24:321][  0]LogNetVersion: GravFind , NetCL: 3573198, EngineNetVer: 2, GameNetVer: 0 (Checksum: 177463827)
[2018.04.26-21.38.24:529][  0]LogPackageLocalizationCache: Processed 5 localized package path(s) for 2 prioritized culture(s) in 0.049150 seconds
[2018.04.26-21.38.24:534][  0]LogUObjectArray: 35825 objects as part of root set at end of initial load.
[2018.04.26-21.38.24:535][  0]LogUObjectAllocator: 7529112 out of 0 bytes used by permanent object pool.
[2018.04.26-21.38.24:535][  0]LogUObjectArray: CloseDisregardForGC: 0/0 objects in disregard for GC pool
[2018.04.26-21.38.24:595][  0]LogInit: WinSock: version 1.1 (2.2), MaxSocks=32767, MaxUdp=65467
[2018.04.26-21.38.26:929][  0]LogTcpMessaging: Initializing TcpMessaging bridge
[2018.04.26-21.38.26:963][  0]LogUdpMessaging: Initializing bridge on interface 0.0.0.0:0 to multicast group 230.0.0.1:6666.
[2018.04.26-21.38.27:569][  0]LogMaterial: Uniform references updated for custom material expression Custom.
[2018.04.26-21.38.27:963][  0]SourceControl: Source control is disabled
[2018.04.26-21.38.27:963][  0]SourceControl: Source control is disabled
[2018.04.26-21.38.28:010][  0]SourceControl: Source control is disabled
[2018.04.26-21.38.28:053][  0]SourceControl: Source control is disabled
[2018.04.26-21.38.28:624][  0]LogAndroidPermission: UAndroidPermissionCallbackProxy::GetInstance
[2018.04.26-21.38.28:842][  0]LogOcInput: OculusInput pre-init called
[2018.04.26-21.38.29:089][  0]LogEngine: Initializing Engine...
[2018.04.26-21.38.29:090][  0]LogHMD: Failed to initialize OpenVR with code 110
[2018.04.26-21.38.29:277][  0]LogStats: UGameplayTagsManager::ConstructGameplayTagTree: Construct from data asset -  0.000 s
[2018.04.26-21.38.29:277][  0]LogStats: UGameplayTagsManager::ConstructGameplayTagTree: GameplayTagTreeChangedEvent.Broadcast -  0.000 s
[2018.04.26-21.38.29:415][  0]LogAIModule: Creating AISystem for world Untitled
[2018.04.26-21.38.29:426][  0]LogInit: XAudio2 using 'AG271QG-8 (NVIDIA High Definition Audio)' : 2 channels at 48 kHz using 16 bits per sample (channel mask 0x3)
[2018.04.26-21.38.29:441][  0]LogInit: FAudioDevice initialized.
[2018.04.26-21.38.29:531][  0]LogDerivedDataCache: Saved boot cache 0.09s 93MB C:/Users/jodmeyer/AppData/Local/UnrealEngine/4.17/DerivedDataCache/Boot.ddc.
[2018.04.26-21.38.29:546][  0]LogInit: Texture streaming: Enabled
[2018.04.26-21.38.29:702][  0]LogEngineSessionManager: EngineSessionManager initialized
[2018.04.26-21.38.29:974][  0]LogInit: Transaction tracking system initialized
[2018.04.26-21.38.30:295][  0]BlueprintLog: New page: Editor Load
[2018.04.26-21.38.31:154][  0]LocalizationService: Localization service is disabled
[2018.04.26-21.38.31:790][  0]LogConsoleResponse: Display: 
[2018.04.26-21.38.31:972][  0]LogCook: Display: Max memory allowance for cook 16384mb min free memory 0mb
[2018.04.26-21.38.31:972][  0]LogCook: Display: Mobile HDR setting 1
[2018.04.26-21.38.31:972][  0]LogGameplayTags: Display: UGameplayTagsManager::DoneAddingNativeTags. DelegateIsBound: 0
[2018.04.26-21.38.32:338][  0]LogFileCache: Scanning file cache for directory 'C:/Users/jodmeyer/Documents/unreal_production_project/GravFind 4.17 - 2 4.17 - 2 4.17 - 2 4.17 - 2/Content/' took 0.01s
[2018.04.26-21.38.32:473][  0]LogLinker: Warning: The file '../../../Engine/Content/BasicShapes/Cone.uasset' contains unrecognizable data, check that it is of the expected type.
[2018.04.26-21.38.32:473][  0]LogLinker: Warning: The file '../../../Engine/Content/BasicShapes/Cone.uasset' contains unrecognizable data, check that it is of the expected type.
[2018.04.26-21.38.32:473][  0]LogUObjectGlobals: Warning: Failed to find object 'StaticMesh /Engine/BasicShapes/Cone.Cone'
[2018.04.26-21.38.32:968][  0]SourceControl: Source control is disabled
[2018.04.26-21.38.32:968][  0]LightingResults: New page: Lighting Build
[2018.04.26-21.38.33:006][  0]MapCheck: New page: Map Check
[2018.04.26-21.38.33:006][  0]LightingResults: New page: Lighting Build
[2018.04.26-21.38.33:354][  0]LogAIModule: Creating AISystem for world Minimal_Default
[2018.04.26-21.38.33:363][  0]LogEditorServer: Finished looking for orphan Actors (0.000 secs)
[2018.04.26-21.38.33:377][  0]Cmd: MAP CHECKDEP NOCLEARLOG
[2018.04.26-21.38.33:437][  0]MapCheck: Map check complete: 0 Error(s), 0 Warning(s), took 60.877ms to complete.
[2018.04.26-21.38.33:437][  0]LogFileHelpers: Loading map 'Minimal_Default' took 0.469
[2018.04.26-21.38.33:617][  0]LogCollectionManager: Loaded 0 collections in 0.001260 seconds
[2018.04.26-21.38.33:702][  0]LogFileCache: Scanning file cache for directory 'C:/Users/jodmeyer/Documents/unreal_production_project/GravFind 4.17 - 2 4.17 - 2 4.17 - 2 4.17 - 2/Saved/Collections/' took 0.01s
[2018.04.26-21.38.33:702][  0]LogFileCache: Scanning file cache for directory 'C:/Users/jodmeyer/Documents/unreal_production_project/GravFind 4.17 - 2 4.17 - 2 4.17 - 2 4.17 - 2/Content/Developers/jodmeyer/Collections/' took 0.01s
[2018.04.26-21.38.33:702][  0]LogFileCache: Scanning file cache for directory 'C:/Users/jodmeyer/Documents/unreal_production_project/GravFind 4.17 - 2 4.17 - 2 4.17 - 2 4.17 - 2/Content/Collections/' took 0.01s
[2018.04.26-21.38.33:702][  0]LogCollectionManager: Rebuilt the GUID cache for 0 collections in 0.000000 seconds
[2018.04.26-21.38.33:711][  0]LogContentBrowser: Native class hierarchy populated in 0.0087 seconds. Added 2386 classes and 500 folders.
[2018.04.26-21.38.33:786][  0]LogContentBrowser: Native class hierarchy updated for 'WidgetCarousel' in 0.0007 seconds. Added 0 classes and 0 folders.
[2018.04.26-21.38.33:820][  0]LogContentBrowser: Native class hierarchy updated for 'AddContentDialog' in 0.0005 seconds. Added 0 classes and 0 folders.
[2018.04.26-21.38.33:868][  0]LogContentBrowser: Native class hierarchy updated for 'SceneOutliner' in 0.0007 seconds. Added 1 classes and 2 folders.
[2018.04.26-21.38.33:876][  0]LogLinker: Warning: The file '../../../Engine/Content/BasicShapes/Cone.uasset' contains unrecognizable data, check that it is of the expected type.
[2018.04.26-21.38.33:876][  0]LogLinker: Warning: The file '../../../Engine/Content/BasicShapes/Cone.uasset' contains unrecognizable data, check that it is of the expected type.
[2018.04.26-21.38.33:891][  0]LogSlate: Took 0.000162 seconds to synchronously load lazily loaded font '../../../Engine/Content/Slate/Fonts/Roboto-Regular.ttf' (155K)
[2018.04.26-21.38.33:893][  0]LogSlate: Took 0.000132 seconds to synchronously load lazily loaded font '../../../Engine/Content/Slate/Fonts/Roboto-Bold.ttf' (160K)
[2018.04.26-21.38.33:897][  0]LogSlate: Took 0.000131 seconds to synchronously load lazily loaded font '../../../Engine/Content/Editor/Slate/Fonts/FontAwesome.ttf' (139K)
[2018.04.26-21.38.33:983][  0]LogRenderer: Reallocating scene render targets to support 1616x808 Format 10 NumSamples 1 (Frame:1).
[2018.04.26-21.38.34:163][  0]LogContentBrowser: Native class hierarchy updated for 'HierarchicalLODOutliner' in 0.0007 seconds. Added 1 classes and 2 folders.
[2018.04.26-21.38.34:164][  0]LogLoad: (Engine Initialization) Total time: 15.71 seconds
[2018.04.26-21.38.34:164][  0]LogLoad: (Engine Initialization) Total Blueprint compile time: 0.00 seconds
[2018.04.26-21.38.34:164][  0]LogExternalProfiler: No external profilers were discovered.  External profiling features will not be available.
[2018.04.26-21.38.34:521][  0]LogAssetRegistry: Asset discovery search completed in 11.0715 seconds
[2018.04.26-21.38.34:522][  0]LogCollectionManager: Rebuilt the object cache for 0 collections in 0.000001 seconds (found 0 objects)
[2018.04.26-21.38.34:523][  0]LogCollectionManager: Fixed up redirectors for 0 collections in 0.000068 seconds (updated 0 objects)
[2018.04.26-21.38.34:525][  0]LogContentStreaming: Texture pool size now 1000 MB
[2018.04.26-21.38.35:513][  3]LogSlate: Took 0.000194 seconds to synchronously load lazily loaded font '../../../Engine/Content/Slate/Fonts/Roboto-Light.ttf' (159K)
[2018.04.26-21.44.07:220][270]LogSlate: Took 0.000116 seconds to synchronously load lazily loaded font '../../../Engine/Content/Slate/Fonts/Roboto-Light.ttf' (159K)
[2018.04.26-21.44.08:203][386]LogSlate: Took 0.000120 seconds to synchronously load lazily loaded font '../../../Engine/Content/Slate/Fonts/Roboto-Light.ttf' (159K)
[2018.04.26-21.44.08:211][386]LightingResults: New page: Lighting Build
[2018.04.26-21.44.08:212][386]LoadErrors: New page: Loading map: LEtsCreateMap.umap
[2018.04.26-21.44.08:214][386]MapCheck: New page: Map Check
[2018.04.26-21.44.08:214][386]LightingResults: New page: Lighting Build
[2018.04.26-21.44.08:625][386]LogTexture: Display: Building textures: HQ_Lightmap0_3 (AutoDXT, 64X64)
[2018.04.26-21.44.08:625][386]LogTexture: Display: Building textures: HQ_Lightmap1_2 (AutoDXT, 128X128)
[2018.04.26-21.44.08:625][386]LogTexture: Display: Building textures: LQ_Lightmap_0_3 (DXT1, 64X64)
[2018.04.26-21.44.08:625][386]LogTexture: Display: Building textures: LQ_Lightmap_1_2 (DXT1, 128X128)
[2018.04.26-21.44.08:626][386]LogTexture: Display: Building textures: LQ_Lightmap_1_1 (DXT1, 256X256)
[2018.04.26-21.44.08:626][386]LogTexture: Display: Building textures: HQ_Lightmap1_1 (AutoDXT, 256X256)
[2018.04.26-21.44.08:702][386]LogPhysics: Warning: PHYSX: (D:\Build\++UE4+Release-4.17+PhysX_Compile\Sync\Engine\Source\ThirdParty\PhysX\PhysX_3.4\Source\PhysXCooking\src\mesh\TriangleMeshBuilder.cpp 1080) eINTERNAL_ERROR : cleaning the mesh failed
[2018.04.26-21.44.08:702][386]LogPhysics: Warning: Failed to cook TriMesh: /Game/Art/RocketLauncher/rocketlauncherModernMesh.rocketlauncherModernMesh.
[2018.04.26-21.44.08:702][386]LogPhysics: Warning: Attempt to build physics data for /Game/Art/RocketLauncher/rocketlauncherModernMesh.rocketlauncherModernMesh:BodySetup_0 when we are unable to.
[2018.04.26-21.44.08:743][386]LogAIModule: Creating AISystem for world LEtsCreateMap
[2018.04.26-21.44.09:220][386]LogEditorServer: Finished looking for orphan Actors (0.000 secs)
[2018.04.26-21.44.09:269][386]Cmd: MAP CHECKDEP NOCLEARLOG
[2018.04.26-21.44.09:318][386]MapCheck: Map check complete: 0 Error(s), 0 Warning(s), took 49.668ms to complete.
[2018.04.26-21.44.09:318][386]LogFileHelpers: Loading map 'LEtsCreateMap' took 1.121
[2018.04.26-21.44.16:167][164]LogTemp: Repeating last play command: Selected Viewport
[2018.04.26-21.44.16:201][164]LogBlueprintUserMessages: Early PlayInEditor Detection: Level '/Game/Maps/LEtsCreateMap.LEtsCreateMap:PersistentLevel' has LevelScriptBlueprint '/Game/Maps/LEtsCreateMap.LEtsCreateMap:PersistentLevel.LEtsCreateMap' with GeneratedClass '/Game/Maps/LEtsCreateMap.LEtsCreateMap_C' with ClassGeneratedBy '/Game/Maps/LEtsCreateMap.LEtsCreateMap:PersistentLevel.LEtsCreateMap'
[2018.04.26-21.44.16:201][164]LogPlayLevel: PlayLevel: No blueprints needed recompiling
[2018.04.26-21.44.16:202][164]PIE: New page: PIE session: LEtsCreateMap (Apr 26, 2018, 1:44:16 PM)
[2018.04.26-21.44.16:202][164]LogPlayLevel: Creating play world package: /Game/Maps/UEDPIE_0_LEtsCreateMap
[2018.04.26-21.44.16:294][164]LogPlayLevel: PIE: StaticDuplicateObject took: (0.092299s)
[2018.04.26-21.44.16:294][164]LogAIModule: Creating AISystem for world LEtsCreateMap
[2018.04.26-21.44.16:295][164]LogPlayLevel: PIE: World Init took: (0.000838s)
[2018.04.26-21.44.16:296][164]LogPlayLevel: PIE: Created PIE world by copying editor world from /Game/Maps/LEtsCreateMap.LEtsCreateMap to /Game/Maps/UEDPIE_0_LEtsCreateMap.LEtsCreateMap (0.094160s)
[2018.04.26-21.44.16:312][164]LogInit: XAudio2 using 'AG271QG-8 (NVIDIA High Definition Audio)' : 2 channels at 48 kHz using 16 bits per sample (channel mask 0x3)
[2018.04.26-21.44.16:317][164]LogInit: FAudioDevice initialized.
[2018.04.26-21.44.16:367][164]LogLoad: Game class is 'FPSGameMode_C'
[2018.04.26-21.44.16:413][164]LogWorld: Bringing World /Game/Maps/UEDPIE_0_LEtsCreateMap.LEtsCreateMap up for play (max tick rate 0) at 2018.04.26-17.44.16
[2018.04.26-21.44.16:416][164]LogWorld: Bringing up level for play took: 0.046847
[2018.04.26-21.44.16:456][164]LogContentBrowser: Native class hierarchy updated for 'MovieSceneCapture' in 0.0006 seconds. Added 11 classes and 0 folders.
[2018.04.26-21.44.16:461][164]PIE: Play in editor start time for /Game/Maps/UEDPIE_0_LEtsCreateMap -0.19
[2018.04.26-21.44.16:462][164]LogBlueprintUserMessages: Late PlayInEditor Detection: Level '/Game/Maps/LEtsCreateMap.LEtsCreateMap:PersistentLevel' has LevelScriptBlueprint '/Game/Maps/LEtsCreateMap.LEtsCreateMap:PersistentLevel.LEtsCreateMap' with GeneratedClass '/Game/Maps/LEtsCreateMap.LEtsCreateMap_C' with ClassGeneratedBy '/Game/Maps/LEtsCreateMap.LEtsCreateMap:PersistentLevel.LEtsCreateMap'
[2018.04.26-21.44.17:551][256]LogBlueprintUserMessages: Early EndPlayMap Detection: Level '/Game/Maps/LEtsCreateMap.LEtsCreateMap:PersistentLevel' has LevelScriptBlueprint '/Game/Maps/LEtsCreateMap.LEtsCreateMap:PersistentLevel.LEtsCreateMap' with GeneratedClass '/Game/Maps/LEtsCreateMap.LEtsCreateMap_C' with ClassGeneratedBy '/Game/Maps/LEtsCreateMap.LEtsCreateMap:PersistentLevel.LEtsCreateMap'
[2018.04.26-21.44.17:593][256]LogBlueprintUserMessages: Late EndPlayMap Detection: Level '/Game/Maps/LEtsCreateMap.LEtsCreateMap:PersistentLevel' has LevelScriptBlueprint '/Game/Maps/LEtsCreateMap.LEtsCreateMap:PersistentLevel.LEtsCreateMap' with GeneratedClass '/Game/Maps/LEtsCreateMap.LEtsCreateMap_C' with ClassGeneratedBy '/Game/Maps/LEtsCreateMap.LEtsCreateMap:PersistentLevel.LEtsCreateMap'
[2018.04.26-21.44.20:609][598]LogEditorViewport: Clicking on Actor (LMB): StaticMeshActor (Floor)
[2018.04.26-21.44.28:598][184]LogSavePackage: Save=2722.80ms
[2018.04.26-21.44.28:598][184]LogSavePackage: Moving '../../../../../../Users/jodmeyer/Documents/unreal_production_project/GravFind 4.17 - 2 4.17 - 2 4.17 - 2 4.17 - 2/Saved/LEtsCreateMap34377CF74A59878F7BEFF2A5DC3445BB.tmp' to '../../../../../../Users/jodmeyer/Documents/unreal_production_project/GravFind 4.17 - 2 4.17 - 2 4.17 - 2 4.17 - 2/Content/Maps/LEtsCreateMap.umap'
[2018.04.26-21.44.28:604][184]LogSlate: Took 0.000148 seconds to synchronously load lazily loaded font '../../../Engine/Content/Slate/Fonts/Roboto-Regular.ttf' (155K)
[2018.04.26-21.44.28:607][184]LogSavePackage: Display: Finished SavePackage ../../../../../../Users/jodmeyer/Documents/unreal_production_project/GravFind 4.17 - 2 4.17 - 2 4.17 - 2 4.17 - 2/Content/Maps/LEtsCreateMap.umap
[2018.04.26-21.44.28:651][184]LogSavePackage: Save=20.60ms
[2018.04.26-21.44.28:651][184]LogSavePackage: Moving '../../../../../../Users/jodmeyer/Documents/unreal_production_project/GravFind 4.17 - 2 4.17 - 2 4.17 - 2 4.17 - 2/Saved/LEtsCreateMap_BuiltDataD4D638214519495EE867ED9D0C2F08FE.tmp' to '../../../../../../Users/jodmeyer/Documents/unreal_production_project/GravFind 4.17 - 2 4.17 - 2 4.17 - 2 4.17 - 2/Content/Maps/LEtsCreateMap_BuiltData.uasset'
[2018.04.26-21.44.28:652][184]LogSavePackage: Display: Finished SavePackage ../../../../../../Users/jodmeyer/Documents/unreal_production_project/GravFind 4.17 - 2 4.17 - 2 4.17 - 2 4.17 - 2/Content/Maps/LEtsCreateMap_BuiltData.uasset
[2018.04.26-21.45.13:410][231]LogEditorViewport: Clicking on Actor (LMB): StaticMeshActor (Table)
[2018.04.26-21.45.15:075][421]Cmd: EDIT COPY
[2018.04.26-21.45.15:363][454]Cmd: EDIT PASTE
[2018.04.26-21.45.24:525][355]LogEditorViewport: Clicking on Actor (LMB): StaticMeshActor (ShelfLeg117)
[2018.04.26-21.45.25:297][434]Cmd: EDIT COPY
[2018.04.26-21.45.25:532][460]Cmd: EDIT PASTE
[2018.04.26-21.45.32:535][240]Cmd: EDIT COPY
[2018.04.26-21.45.32:704][259]Cmd: EDIT PASTE
[2018.04.26-21.45.36:602][689]LogEditorViewport: Clicking on Actor (LMB): Box1_C (Box675)
[2018.04.26-21.45.38:029][850]LogEditorViewport: Clicking on Actor (CTRL LMB): Box1_C (Box674)
[2018.04.26-21.45.38:742][931]LogEditorViewport: Clicking on Actor (CTRL LMB): Box1_C (Box673)
[2018.04.26-21.45.39:186][980]LogEditorViewport: Clicking on Actor (CTRL LMB): Box1_C (Box667)
[2018.04.26-21.45.39:646][ 31]LogEditorViewport: Clicking on Actor (CTRL LMB): Box1_C (Box670)
[2018.04.26-21.45.40:005][ 70]LogEditorViewport: Clicking on Actor (CTRL LMB): Box1_C (Box671)
[2018.04.26-21.45.40:655][144]Cmd: EDIT COPY
[2018.04.26-21.45.40:844][165]Cmd: EDIT PASTE
[2018.04.26-21.45.45:597][705]Cmd: EDIT COPY
[2018.04.26-21.45.45:862][735]Cmd: EDIT PASTE
[2018.04.26-21.45.48:120][991]Cmd: EDIT PASTE
[2018.04.26-21.45.50:276][233]Cmd: EDIT PASTE
[2018.04.26-21.45.52:333][466]Cmd: EDIT PASTE
[2018.04.26-21.45.53:914][640]Cmd: EDIT PASTE
[2018.04.26-21.45.56:093][885]Cmd: EDIT PASTE
[2018.04.26-21.45.59:214][235]Cmd: EDIT PASTE
[2018.04.26-21.46.03:770][758]LogEditorViewport: Clicking on Actor (context menu): StaticMeshActor (Wall)
[2018.04.26-21.46.07:335][822]LogSavePackage: Save=2793.63ms
[2018.04.26-21.46.07:335][822]LogSavePackage: Moving '../../../../../../Users/jodmeyer/Documents/unreal_production_project/GravFind 4.17 - 2 4.17 - 2 4.17 - 2 4.17 - 2/Saved/LEtsCreateMapEFAA0ECB46BB59012D217FAF17846C80.tmp' to '../../../../../../Users/jodmeyer/Documents/unreal_production_project/GravFind 4.17 - 2 4.17 - 2 4.17 - 2 4.17 - 2/Content/Maps/LEtsCreateMap.umap'
[2018.04.26-21.46.07:340][822]LogSavePackage: Display: Finished SavePackage ../../../../../../Users/jodmeyer/Documents/unreal_production_project/GravFind 4.17 - 2 4.17 - 2 4.17 - 2 4.17 - 2/Content/Maps/LEtsCreateMap.umap
[2018.04.26-21.46.07:383][822]LogSavePackage: Save=16.04ms
[2018.04.26-21.46.07:383][822]LogSavePackage: Moving '../../../../../../Users/jodmeyer/Documents/unreal_production_project/GravFind 4.17 - 2 4.17 - 2 4.17 - 2 4.17 - 2/Saved/LEtsCreateMap_BuiltData968C90EA4DA2D630F82254836A503760.tmp' to '../../../../../../Users/jodmeyer/Documents/unreal_production_project/GravFind 4.17 - 2 4.17 - 2 4.17 - 2 4.17 - 2/Content/Maps/LEtsCreateMap_BuiltData.uasset'
[2018.04.26-21.46.07:384][822]LogSavePackage: Display: Finished SavePackage ../../../../../../Users/jodmeyer/Documents/unreal_production_project/GravFind 4.17 - 2 4.17 - 2 4.17 - 2 4.17 - 2/Content/Maps/LEtsCreateMap_BuiltData.uasset
[2018.04.26-21.46.43:997][  4]LogTemp: Repeating last play command: Selected Viewport
[2018.04.26-21.46.44:005][  4]LogBlueprintUserMessages: Early PlayInEditor Detection: Level '/Game/Maps/LEtsCreateMap.LEtsCreateMap:PersistentLevel' has LevelScriptBlueprint '/Game/Maps/LEtsCreateMap.LEtsCreateMap:PersistentLevel.LEtsCreateMap' with GeneratedClass '/Game/Maps/LEtsCreateMap.LEtsCreateMap_C' with ClassGeneratedBy '/Game/Maps/LEtsCreateMap.LEtsCreateMap:PersistentLevel.LEtsCreateMap'
[2018.04.26-21.46.44:005][  4]LogPlayLevel: PlayLevel: No blueprints needed recompiling
[2018.04.26-21.46.44:005][  4]PIE: New page: PIE session: LEtsCreateMap (Apr 26, 2018, 1:46:44 PM)
[2018.04.26-21.46.44:005][  4]LogPlayLevel: Creating play world package: /Game/Maps/UEDPIE_0_LEtsCreateMap
[2018.04.26-21.46.44:101][  4]LogPlayLevel: PIE: StaticDuplicateObject took: (0.096119s)
[2018.04.26-21.46.44:102][  4]LogAIModule: Creating AISystem for world LEtsCreateMap
[2018.04.26-21.46.44:102][  4]LogPlayLevel: PIE: World Init took: (0.000898s)
[2018.04.26-21.46.44:103][  4]LogPlayLevel: PIE: Created PIE world by copying editor world from /Game/Maps/LEtsCreateMap.LEtsCreateMap to /Game/Maps/UEDPIE_0_LEtsCreateMap.LEtsCreateMap (0.098040s)
[2018.04.26-21.46.44:125][  4]LogInit: XAudio2 using 'Speakers (Realtek High Definition Audio)' : 2 channels at 48 kHz using 32 bits per sample (channel mask 0x3)
[2018.04.26-21.46.44:178][  4]LogInit: FAudioDevice initialized.
[2018.04.26-21.46.44:208][  4]LogLoad: Game class is 'FPSGameMode_C'
[2018.04.26-21.46.44:256][  4]LogWorld: Bringing World /Game/Maps/UEDPIE_0_LEtsCreateMap.LEtsCreateMap up for play (max tick rate 0) at 2018.04.26-17.46.44
[2018.04.26-21.46.44:260][  4]LogWorld: Bringing up level for play took: 0.050199
[2018.04.26-21.46.44:265][  4]PIE: Play in editor start time for /Game/Maps/UEDPIE_0_LEtsCreateMap -0.385
[2018.04.26-21.46.44:266][  4]LogBlueprintUserMessages: Late PlayInEditor Detection: Level '/Game/Maps/LEtsCreateMap.LEtsCreateMap:PersistentLevel' has LevelScriptBlueprint '/Game/Maps/LEtsCreateMap.LEtsCreateMap:PersistentLevel.LEtsCreateMap' with GeneratedClass '/Game/Maps/LEtsCreateMap.LEtsCreateMap_C' with ClassGeneratedBy '/Game/Maps/LEtsCreateMap.LEtsCreateMap:PersistentLevel.LEtsCreateMap'
[2018.04.26-21.46.45:010][ 61]LogBlueprintUserMessages: Early EndPlayMap Detection: Level '/Game/Maps/LEtsCreateMap.LEtsCreateMap:PersistentLevel' has LevelScriptBlueprint '/Game/Maps/LEtsCreateMap.LEtsCreateMap:PersistentLevel.LEtsCreateMap' with GeneratedClass '/Game/Maps/LEtsCreateMap.LEtsCreateMap_C' with ClassGeneratedBy '/Game/Maps/LEtsCreateMap.LEtsCreateMap:PersistentLevel.LEtsCreateMap'
[2018.04.26-21.46.45:067][ 61]LogBlueprintUserMessages: Late EndPlayMap Detection: Level '/Game/Maps/LEtsCreateMap.LEtsCreateMap:PersistentLevel' has LevelScriptBlueprint '/Game/Maps/LEtsCreateMap.LEtsCreateMap:PersistentLevel.LEtsCreateMap' with GeneratedClass '/Game/Maps/LEtsCreateMap.LEtsCreateMap_C' with ClassGeneratedBy '/Game/Maps/LEtsCreateMap.LEtsCreateMap:PersistentLevel.LEtsCreateMap'
[2018.04.26-21.46.46:880][192]LogContentBrowser: Native class hierarchy updated for 'BlueprintGraph' in 0.0008 seconds. Added 113 classes and 0 folders.
[2018.04.26-21.46.47:520][192]LogSlate: Took 0.000157 seconds to synchronously load lazily loaded font '../../../Engine/Content/Editor/Slate/Fonts/Roboto-BoldCondensed.ttf' (158K)
[2018.04.26-21.46.47:762][193]LogSlate: Took 0.000230 seconds to synchronously load lazily loaded font '../../../Engine/Content/Editor/Slate/Fonts/Roboto-Italic.ttf' (157K)
[2018.04.26-21.46.50:554][324]BlueprintLog: New page: Compile GordonFreeman
